[{
        "title": "Titre 1",
        "date": "2020-03-09",
        "amount": 22.2
    },
    {
        "title": "Titre 1",
        "date": "2020-03-09",
        "amount": 22.2
    },
    {
        "title": "Titre 1",
        "date": "2020-03-09",
        "amount": 22.2
    },
    {
        "title": "Titre 1",
        "date": "2020-03-09",
        "amount": 22.2
    },
    {
        "title": "Titre 1",
        "date": "2020-03-09",
        "amount": 22.2
    },
    {
        "title": "Titre 1",
        "date": "2020-03-09",
        "amount": 22.2
    },
    {
        "title": "Titre 1",
        "date": "2020-03-09",
        "amount": 22.2
    },
    {
        "title": "Titre 1",
        "date": "2020-03-09",
        "amount": 22.2
    }

]